Google Data Analytics Capstone: Bellabeat Case Study
…
# Number of users who submitted data till May 12, 2016
daily_activity %>% group_by(id) %>% summarize(last_day = max(date)) %>% filter(last_day == "2016-05-12")

## # A tibble: 21 x 2
##    id         last_day  
##    <chr>      <date>    
##  1 1503960366 2016-05-12
##  2 1624580081 2016-05-12
##  3 1844505072 2016-05-12
##  4 1927972279 2016-05-12
##  5 2022484408 2016-05-12
##  6 2026352035 2016-05-12
##  7 2320127002 2016-05-12
##  8 2873212765 2016-05-12
##  9 4020332650 2016-05-12
## 10 4319703577 2016-05-12
## # ... with 11 more rows
…
daily_sleep %>% group_by(id) %>% summarize(first_day = min(date)) 

## # A tibble: 24 x 2
##    id         first_day 
##    <chr>      <date>    
##  1 1503960366 2016-04-12
##  2 1644430081 2016-04-29
##  3 1844505072 2016-04-15
##  4 1927972279 2016-04-12
##  5 2026352035 2016-04-12
##  6 2320127002 2016-04-23
##  7 2347167796 2016-04-13
##  8 3977333714 2016-04-12
##  9 4020332650 2016-04-12
## 10 4319703577 2016-04-14
## # ... with 14 more rows
…
